{
    "alias": "role",
    "name": "Laravel role",
    "author": "Nguyen Vu",
    "description": "Laravel role",
    "namespace": "Module\\Role",
    "version": "1.0",
    "autoload": "psr-4",
    "enabled": true,
    "installed": true
}